{
  "project_info": {
    "project_number": "390832103166",
    "firebase_url": "https://tangle-e8fcc.firebaseio.com",
    "project_id": "tangle-e8fcc",
    "storage_bucket": "tangle-e8fcc.appspot.com"
  },
  "client": [
    {
      "client_info": {
        "mobilesdk_app_id": "1:390832103166:android:c11a36f8def0b3d4",
        "android_client_info": {
          "package_name": "com.tangle"
        }
      },
      "oauth_client": [
        {
          "client_id": "390832103166-8rvkgck1s68r9r10fuqk0mcnnmukvmla.apps.googleusercontent.com",
          "client_type": 1,
          "android_info": {
            "package_name": "com.tangle",
            "certificate_hash": "9ee987d28d5eba288868cd20d85f111c905a56e4"
          }
        },
        {
          "client_id": "390832103166-ujno887no91k4mbamuam0j5886ih9m47.apps.googleusercontent.com",
          "client_type": 3
        }
      ],
      "api_key": [
        {
          "current_key": "AIzaSyBxj21RpEAAJspHMQkwzCbouAS8veHArqA"
        }
      ],
      "services": {
        "analytics_service": {
          "status": 1
        },
        "appinvite_service": {
          "status": 2,
          "other_platform_oauth_client": [
            {
              "client_id": "390832103166-ujno887no91k4mbamuam0j5886ih9m47.apps.googleusercontent.com",
              "client_type": 3
            },
            {
              "client_id": "390832103166-1trrog6arllrq5vmtrpjj20ngo3jiv7p.apps.googleusercontent.com",
              "client_type": 2,
              "ios_info": {
                "bundle_id": "com.tangle.tangleapp",
                "app_store_id": "1398254997"
              }
            }
          ]
        },
        "ads_service": {
          "status": 2
        }
      }
    }
  ],
  "configuration_version": "1"
}